module github.com/AikoCute-Offical/AikoR

go 1.18

require (
	github.com/bitly/go-simplejson v0.5.0
	github.com/bmizerany/assert v0.0.0-20160611221934-b7ed37b82869 // indirect
	github.com/deckarep/golang-set v1.8.0
	github.com/fsnotify/fsnotify v1.5.4
	github.com/go-acme/lego/v4 v4.8.0
	github.com/go-ole/go-ole v1.2.6 // indirect
	github.com/go-resty/resty/v2 v2.7.0
	github.com/golang/protobuf v1.5.2 // indirect
	github.com/imdario/mergo v0.3.13
	github.com/juju/ratelimit v1.0.2
	github.com/r3labs/diff/v2 v2.15.1
	github.com/shirou/gopsutil/v3 v3.22.7
	github.com/spf13/viper v1.12.0
	github.com/stretchr/testify v1.8.0
	github.com/tklauser/go-sysconf v0.3.10 // indirect
	github.com/urfave/cli v1.22.9
	github.com/xtls/xray-core v1.5.9
	golang.org/x/net v0.0.0-20220708220712-1185a9018129
	google.golang.org/appengine v1.6.7 // indirect
	google.golang.org/protobuf v1.28.1
)

require (
	cloud.google.com/go/compute v1.6.1 // indirect
	github.com/Azure/azure-sdk-for-go v65.0.0+incompatible // indirect
	github.com/Azure/go-autorest v14.2.0+incompatible // indirect
	github.com/Azure/go-autorest/autorest v0.11.27 // indirect
	github.com/Azure/go-autorest/autorest/adal v0.9.20 // indirect
	github.com/Azure/go-autorest/autorest/azure/auth v0.5.11 // indirect
	github.com/Azure/go-autorest/autorest/azure/cli v0.4.5 // indirect
	github.com/Azure/go-autorest/autorest/date v0.3.0 // indirect
	github.com/Azure/go-autorest/autorest/to v0.4.0 // indirect
	github.com/Azure/go-autorest/autorest/validation v0.3.1 // indirect
	github.com/Azure/go-autorest/logger v0.2.1 // indirect
	github.com/Azure/go-autorest/tracing v0.6.0 // indirect
	github.com/OpenDNS/vegadns2client v0.0.0-20180418235048-a3fa4a771d87 // indirect
	github.com/akamai/AkamaiOPEN-edgegrid-golang v1.1.1 // indirect
	github.com/aliyun/alibaba-cloud-sdk-go v1.61.1621 // indirect
	github.com/andres-erbsen/clock v0.0.0-20160526145045-9e14626cd129 // indirect
	github.com/aws/aws-sdk-go v1.44.26 // indirect
	github.com/boombuler/barcode v1.0.1 // indirect
	github.com/cenkalti/backoff/v4 v4.1.3 // indirect
	github.com/cheekybits/genny v1.0.0 // indirect
	github.com/cloudflare/cloudflare-go v0.40.0 // indirect
	github.com/cpu/goacmedns v0.1.1 // indirect
	github.com/cpuguy83/go-md2man/v2 v2.0.2 // indirect
	github.com/davecgh/go-spew v1.1.1 // indirect
	github.com/deepmap/oapi-codegen v1.11.0 // indirect
	github.com/dgryski/go-metro v0.0.0-20211217172704-adc40b04c140 // indirect
	github.com/dimchansky/utfbom v1.1.1 // indirect
	github.com/dnsimple/dnsimple-go v0.71.1 // indirect
	github.com/exoscale/egoscale v1.19.0 // indirect
	github.com/fatih/structs v1.1.0 // indirect
	github.com/francoispqt/gojay v1.2.13 // indirect
	github.com/ghodss/yaml v1.0.1-0.20190212211648-25d852aebe32 // indirect
	github.com/go-errors/errors v1.4.2 // indirect
	github.com/go-task/slim-sprig v0.0.0-20210107165309-348f09dbbbc0 // indirect
	github.com/gofrs/uuid v4.2.0+incompatible // indirect
	github.com/golang-jwt/jwt/v4 v4.4.1 // indirect
	github.com/golang/groupcache v0.0.0-20210331224755-41bb18bfe9da // indirect
	github.com/google/go-querystring v1.1.0 // indirect
	github.com/google/uuid v1.3.0 // indirect
	github.com/googleapis/gax-go/v2 v2.4.0 // indirect
	github.com/gophercloud/gophercloud v0.25.0 // indirect
	github.com/gophercloud/utils v0.0.0-20220307143606-8e7800759d16 // indirect
	github.com/gorilla/websocket v1.5.0 // indirect
	github.com/hashicorp/go-cleanhttp v0.5.2 // indirect
	github.com/hashicorp/go-retryablehttp v0.7.1 // indirect
	github.com/hashicorp/hcl v1.0.0 // indirect
	github.com/iij/doapi v0.0.0-20190504054126-0bbf12d6d7df // indirect
	github.com/infobloxopen/infoblox-go-client v1.1.1 // indirect
	github.com/jarcoal/httpmock v1.2.0 // indirect
	github.com/jmespath/go-jmespath v0.4.0 // indirect
	github.com/json-iterator/go v1.1.12 // indirect
	github.com/k0kubun/go-ansi v0.0.0-20180517002512-3bf9e2903213 // indirect
	github.com/klauspost/cpuid/v2 v2.1.0 // indirect
	github.com/kolo/xmlrpc v0.0.0-20201022064351-38db28db192b // indirect
	github.com/labbsr0x/bindman-dns-webhook v1.0.2 // indirect
	github.com/labbsr0x/goh v1.0.1 // indirect
	github.com/linode/linodego v1.6.0 // indirect
	github.com/liquidweb/go-lwApi v0.0.5 // indirect
	github.com/liquidweb/liquidweb-cli v0.6.10 // indirect
	github.com/liquidweb/liquidweb-go v1.6.3 // indirect
	github.com/lucas-clemente/quic-go v0.28.0 // indirect
	github.com/lufia/plan9stats v0.0.0-20211012122336-39d0f177ccd0 // indirect
	github.com/magiconair/properties v1.8.6 // indirect
	github.com/marten-seemann/qtls-go1-16 v0.1.5 // indirect
	github.com/marten-seemann/qtls-go1-17 v0.1.2 // indirect
	github.com/marten-seemann/qtls-go1-18 v0.1.2 // indirect
	github.com/marten-seemann/qtls-go1-19 v0.1.0-beta.1 // indirect
	github.com/mattn/go-isatty v0.0.14 // indirect
	github.com/miekg/dns v1.1.50 // indirect
	github.com/mimuret/golang-iij-dpf v0.7.1 // indirect
	github.com/mitchellh/go-homedir v1.1.0 // indirect
	github.com/mitchellh/mapstructure v1.5.0 // indirect
	github.com/modern-go/concurrent v0.0.0-20180306012644-bacd9c7ef1dd // indirect
	github.com/modern-go/reflect2 v1.0.2 // indirect
	github.com/namedotcom/go v0.0.0-20180403034216-08470befbe04 // indirect
	github.com/nrdcg/auroradns v1.0.1 // indirect
	github.com/nrdcg/desec v0.6.0 // indirect
	github.com/nrdcg/dnspod-go v0.4.0 // indirect
	github.com/nrdcg/freemyip v0.2.0 // indirect
	github.com/nrdcg/goinwx v0.8.1 // indirect
	github.com/nrdcg/namesilo v0.2.1 // indirect
	github.com/nrdcg/porkbun v0.1.1 // indirect
	github.com/nxadm/tail v1.4.8 // indirect
	github.com/onsi/ginkgo v1.16.5 // indirect
	github.com/oracle/oci-go-sdk v24.3.0+incompatible // indirect
	github.com/ovh/go-ovh v1.1.0 // indirect
	github.com/patrickmn/go-cache v2.1.0+incompatible // indirect
	github.com/pelletier/go-toml v1.9.5 // indirect
	github.com/pelletier/go-toml/v2 v2.0.1 // indirect
	github.com/pires/go-proxyproto v0.6.2 // indirect
	github.com/pkg/errors v0.9.1 // indirect
	github.com/pmezard/go-difflib v1.0.0 // indirect
	github.com/power-devops/perfstat v0.0.0-20210106213030-5aafc221ea8c // indirect
	github.com/pquerna/otp v1.3.0 // indirect
	github.com/rainycape/memcache v0.0.0-20150622160815-1031fa0ce2f2 // indirect
	github.com/refraction-networking/utls v1.1.0 // indirect
	github.com/riobard/go-bloom v0.0.0-20200614022211-cdc8013cb5b3 // indirect
	github.com/rogpeppe/go-internal v1.8.1 // indirect
	github.com/russross/blackfriday/v2 v2.1.0 // indirect
	github.com/sacloud/libsacloud v1.36.2 // indirect
	github.com/sagernet/sing v0.0.0-20220714145306-09b55ce4b6d0 // indirect
	github.com/sagernet/sing-shadowsocks v0.0.0-20220716012931-952ae62e05d7 // indirect
	github.com/scaleway/scaleway-sdk-go v1.0.0-beta.9 // indirect
	github.com/seiflotfy/cuckoofilter v0.0.0-20220411075957-e3b120b3f5fb // indirect
	github.com/sirupsen/logrus v1.8.1 // indirect
	github.com/smartystreets/go-aws-auth v0.0.0-20180515143844-0c1422d1fdb9 // indirect
	github.com/softlayer/softlayer-go v1.0.5 // indirect
	github.com/softlayer/xmlrpc v0.0.0-20200409220501-5f089df7cb7e // indirect
	github.com/spf13/afero v1.8.2 // indirect
	github.com/spf13/cast v1.5.0 // indirect
	github.com/spf13/jwalterweatherman v1.1.0 // indirect
	github.com/spf13/pflag v1.0.5 // indirect
	github.com/stretchr/objx v0.4.0 // indirect
	github.com/subosito/gotenv v1.3.0 // indirect
	github.com/tencentcloud/tencentcloud-sdk-go/tencentcloud/common v1.0.412 // indirect
	github.com/tencentcloud/tencentcloud-sdk-go/tencentcloud/dnspod v1.0.412 // indirect
	github.com/tklauser/numcpus v0.5.0 // indirect
	github.com/transip/gotransip/v6 v6.17.0 // indirect
	github.com/v2fly/ss-bloomring v0.0.0-20210312155135-28617310f63e // indirect
	github.com/vinyldns/go-vinyldns v0.9.16 // indirect
	github.com/vmihailenco/msgpack v4.0.4+incompatible // indirect
	github.com/vultr/govultr/v2 v2.17.0 // indirect
	github.com/xtls/go v0.0.0-20210920065950-d4af136d3672 // indirect
	github.com/yusufpapurcu/wmi v1.2.2 // indirect
	go.opencensus.io v0.23.0 // indirect
	go.starlark.net v0.0.0-20220714194419-4cadf0a12139 // indirect
	go.uber.org/ratelimit v0.2.0 // indirect
	golang.org/x/crypto v0.0.0-20220622213112-05595931fe9d // indirect
	golang.org/x/mod v0.6.0-dev.0.20220419223038-86c51ed26bb4 // indirect
	golang.org/x/oauth2 v0.0.0-20220524215830-622c5d57e401 // indirect
	golang.org/x/sys v0.0.0-20220715151400-c0bba94af5f8 // indirect
	golang.org/x/text v0.3.7 // indirect
	golang.org/x/time v0.0.0-20220411224347-583f2d630306 // indirect
	golang.org/x/tools v0.1.11 // indirect
	google.golang.org/api v0.82.0 // indirect
	google.golang.org/genproto v0.0.0-20220715211116-798f69b842b9 // indirect
	google.golang.org/grpc v1.48.0 // indirect
	gopkg.in/ini.v1 v1.66.6 // indirect
	gopkg.in/ns1/ns1-go.v2 v2.6.5 // indirect
	gopkg.in/square/go-jose.v2 v2.6.0 // indirect
	gopkg.in/tomb.v1 v1.0.0-20141024135613-dd632973f1e7 // indirect
	gopkg.in/yaml.v2 v2.4.0 // indirect
	gopkg.in/yaml.v3 v3.0.1 // indirect
	lukechampine.com/blake3 v1.1.7 // indirect
)

replace github.com/linode/linodego => github.com/linode/linodego v0.31.1

replace github.com/exoscale/egoscale => github.com/exoscale/egoscale v0.67.0
